[
{
  "directory": "/root/zmqserver",
  "command": "/usr/bin/c++  -DBITS_64 -DLinux -I/root/zmqserver -I/root/zmqserver/include -I/root/Sixbell/develop/deploy/include   -fno-omit-frame-pointer  -O1  -g -ggdb -std=gnu++17 -fno-omit-frame-pointer   -I/root/Sixbell/develop/deploy/include/paramsCodec -I/root/Sixbell/develop/deploy/include/sllog -I/root/Sixbell/develop/deploy/include/ACE -I/root/Sixbell/develop/deploy/include/slasn1codec -I/root/Sixbell/develop/deploy/include/slexception -o CMakeFiles/zmqserver.dir/server.cpp.o -c /root/zmqserver/server.cpp",
  "file": "/root/zmqserver/server.cpp"
},
{
  "directory": "/root/zmqserver",
  "command": "/usr/bin/c++  -DBITS_64 -DLinux -I/root/zmqserver -I/root/zmqserver/include -I/root/Sixbell/develop/deploy/include   -fno-omit-frame-pointer  -O1  -g -ggdb -std=gnu++17 -fno-omit-frame-pointer   -I/root/Sixbell/develop/deploy/include/paramsCodec -I/root/Sixbell/develop/deploy/include/sllog -I/root/Sixbell/develop/deploy/include/ACE -I/root/Sixbell/develop/deploy/include/slasn1codec -I/root/Sixbell/develop/deploy/include/slexception -o CMakeFiles/zmqclient.dir/client.cpp.o -c /root/zmqserver/client.cpp",
  "file": "/root/zmqserver/client.cpp"
}
]